[gd_scene load_steps=3 format=2]

[ext_resource path="res://entities/player/blood/blood_0.png" type="Texture" id=1]

[sub_resource type="RectangleShape2D" id=1]
extents = Vector2( 1, 0.5 )

[node name="blood_0" type="RigidBody2D"]
collision_layer = 524288
collision_mask = 524329
continuous_cd = 1

[node name="CollisionShape2D" type="CollisionShape2D" parent="."]
position = Vector2( 0, -0.5 )
shape = SubResource( 1 )

[node name="Sprite" type="Sprite" parent="."]
texture = ExtResource( 1 )
